{
	"info": {
		"_postman_id": "c2856314-c589-483a-adde-3cb279d11b17",
		"name": "socialApp API",
		"schema": "https://schema.getpostman.com/json/collection/v2.1.0/collection.json"
	},
	"item": [
		{
			"name": "FaceBook Login",
			"protocolProfileBehavior": {
				"disableBodyPruning": true
			},
			"request": {
				"method": "GET",
				"header": [
					{
						"key": "Content-Type",
						"name": "Content-Type",
						"value": "application/json",
						"type": "text"
					},
					{
						"key": "accessToken",
						"value": "e43c86214dd4b885096adc3db26e294e",
						"type": "text"
					}
				],
				"body": {
					"mode": "raw",
					"raw": "{\n  \"weekMapId\": 1,\n  \"note\": \"hello its weekly map\"\n}"
				},
				"url": {
					"raw": "http://localhost:8000/api/facebookLogin",
					"protocol": "http",
					"host": [
						"localhost"
					],
					"port": "8000",
					"path": [
						"api",
						"facebookLogin"
					]
				},
				"description": "You cannot use the Facebook Login API via postman. You need to use the browser.\nAfter Login you want get the accessToken parameter. You need to use that accessToken for utilizing the other API.\naccessToken must be send in headers."
			},
			"response": []
		},
		{
			"name": "Search the members in the APP",
			"protocolProfileBehavior": {
				"disableBodyPruning": true
			},
			"request": {
				"method": "GET",
				"header": [
					{
						"key": "accessToken",
						"value": "de3e282f6c4ebadfd0e2bcaa335a955b",
						"type": "text"
					},
					{
						"key": "Content-Type",
						"name": "Content-Type",
						"value": "application/json",
						"type": "text"
					}
				],
				"body": {
					"mode": "raw",
					"raw": "{\n\t\"q\":\"w\"\n}"
				},
				"url": {
					"raw": "http://localhost:8000/api/searchfriend?q=R",
					"protocol": "http",
					"host": [
						"localhost"
					],
					"port": "8000",
					"path": [
						"api",
						"searchfriend"
					],
					"query": [
						{
							"key": "q",
							"value": "R"
						}
					]
				},
				"description": "accessToken must be send in headers"
			},
			"response": []
		},
		{
			"name": "Send the Friend Request",
			"request": {
				"method": "POST",
				"header": [
					{
						"key": "accessToken",
						"value": "de3e282f6c4ebadfd0e2bcaa335a955b",
						"type": "text"
					},
					{
						"key": "Content-Type",
						"value": "application/json",
						"type": "text"
					}
				],
				"body": {
					"mode": "raw",
					"raw": "{\n\t\"friendUserId\":1\n}"
				},
				"url": {
					"raw": "http://localhost:8000/api/sendConnectionRequest",
					"protocol": "http",
					"host": [
						"localhost"
					],
					"port": "8000",
					"path": [
						"api",
						"sendConnectionRequest"
					]
				}
			},
			"response": []
		},
		{
			"name": "Accept the friend request received",
			"request": {
				"method": "POST",
				"header": [
					{
						"key": "accessToken",
						"value": "de3e282f6c4ebadfd0e2bcaa335a955b",
						"type": "text"
					},
					{
						"key": "Content-Type",
						"value": "application/json",
						"type": "text"
					}
				],
				"body": {
					"mode": "raw",
					"raw": "{\n\t\"friendUserId\":1\n}"
				},
				"url": {
					"raw": "http://localhost:8000/api/acceptConnectionRequest",
					"protocol": "http",
					"host": [
						"localhost"
					],
					"port": "8000",
					"path": [
						"api",
						"acceptConnectionRequest"
					]
				}
			},
			"response": []
		},
		{
			"name": "Get the Friend List",
			"request": {
				"method": "GET",
				"header": [
					{
						"key": "accessToken",
						"value": "361a72e5d64edb282e07b9c55165600e",
						"type": "text"
					},
					{
						"key": "Content-Type",
						"value": "application/json",
						"type": "text"
					}
				],
				"body": {
					"mode": "raw",
					"raw": ""
				},
				"url": {
					"raw": "http://localhost:8000/api/getAllFriends",
					"protocol": "http",
					"host": [
						"localhost"
					],
					"port": "8000",
					"path": [
						"api",
						"getAllFriends"
					]
				}
			},
			"response": []
		},
		{
			"name": "Get the all the received friend Request",
			"request": {
				"method": "GET",
				"header": [
					{
						"key": "accessToken",
						"value": "361a72e5d64edb282e07b9c55165600e",
						"type": "text"
					},
					{
						"key": "Content-Type",
						"value": "application/json",
						"type": "text"
					}
				],
				"body": {
					"mode": "raw",
					"raw": ""
				},
				"url": {
					"raw": "http://localhost:8000/api/getReceiveConnectionRequest",
					"protocol": "http",
					"host": [
						"localhost"
					],
					"port": "8000",
					"path": [
						"api",
						"getReceiveConnectionRequest"
					]
				}
			},
			"response": []
		}
	]
}